…
【注释：上述模型指的是$i\times k$ (具体地，$i\times 2$)维度的数据，对于每一个个体$i$，抽取2个随机的$\varepsilon$以后，比较$\beta x_1+\varepsilon_{i1}$和$\beta x_2+\varepsilon_{i2}$的值，将较大的结果赋值为1，否则赋值为0

在离散选择模型的框架下，该模型可以理解为：参数$k$表示两种不同的商品，变量$x$为商品的某种特征，取值为1或0，参数$\beta$为消费者对于该特征的偏好特征，由于该参数没有下标，其中暗含的假设是所有消费者对该特征的评价一致，也可以理解为是所有消费者对于该特征的平均偏好；潜变量$\beta x+\varepsilon$意味着消费者对该商品的总体偏好程度，用$\varepsilon$来刻画消费者个人的特异性偏好

那么，若$y_{i1}=1$，则消费者偏好商品1，否则消费者偏好商品2，消费者只能偏好1和2中的某一个】

**Step 1：首先完成以下的数据构造**

```
## # A tibble: 2,000 × 3
##        i     k     x
##    <int> <int> <dbl>
##  1     1     1     0
##  2     1     2     1
##  3     2     1     0
##  4     2     2     1
##  5     3     1     0
##  6     3     2     1
##  7     4     1     0
##  8     4     2     1
##  9     5     1     0
## 10     5     2     1
## # … with 1,990 more rows
## # ℹ Use `print(n = ...)` to see more rows
```
…
#用tibble的方法为
tibbledata <- tibble(
    i = rep(1:1000,each=2),
    k = rep(1:2,times=1000),
    x = rep(0:1,times=1000)
)
```

**Step 2：使用`evd`包随机生成第一类极值分布的数据，随机种子为1，完成以下的数据构造**

```
## # A tibble: 2,000 × 4
##        i     k     x       e
##    <int> <int> <dbl>   <dbl>
##  1     1     1     0  0.281 
##  2     1     2     1 -0.167 
##  3     2     1     0  1.93  
##  4     2     2     1  1.97  
##  5     3     1     0  0.830 
##  6     3     2     1 -1.06  
##  7     4     1     0 -0.207 
##  8     4     2     1  0.617 
##  9     5     1     0  0.0444
## 10     5     2     1  1.92  
## # … with 1,990 more rows
## # ℹ Use `print(n = ...)` to see more rows
```

**答案**

```
install.packages("evd")

#Gumbel 分布（Generalized Extreme Value distribution Type-I）
set.seed(1)
e <- rgumbel(2000, loc=0, scale=1)
```

**Step 3：计算潜变量的值，形成以下的数据构造**

```
## # A tibble: 2,000 × 5
##        i     k     x       e  latent
##    <int> <int> <dbl>   <dbl>   <dbl>
##  1     1     1     0  0.281   0.281 
##  2     1     2     1 -0.167   0.0331
##  3     2     1     0  1.93    1.93  
##  4     2     2     1  1.97    2.17  
##  5     3     1     0  0.830   0.830 
##  6     3     2     1 -1.06   -0.863 
##  7     4     1     0 -0.207  -0.207 
##  8     4     2     1  0.617   0.817 
##  9     5     1     0  0.0444  0.0444
## 10     5     2     1  1.92    2.12  
## # … with 1,990 more rows
## # ℹ Use `print(n = ...)` to see more rows
```

**答案**

```
latent <- 0.2*x+e
```

**Step 4：得到$y$的值，形成以下的数据构造**

```
## # A tibble: 2,000 × 6
##        i     k     x       e  latent     y
##    <int> <int> <dbl>   <dbl>   <dbl> <dbl>
##  1     1     1     0  0.281   0.281      1
##  2     1     2     1 -0.167   0.0331     0
##  3     2     1     0  1.93    1.93       0
##  4     2     2     1  1.97    2.17       1
##  5     3     1     0  0.830   0.830      1
##  6     3     2     1 -1.06   -0.863      0
##  7     4     1     0 -0.207  -0.207      0
##  8     4     2     1  0.617   0.817      1
##  9     5     1     0  0.0444  0.0444     0
## 10     5     2     1  1.92    2.12       1
## # … with 1,990 more rows
## # ℹ Use `print(n = ...)` to see more rows
```
…
