…
**2.1 实战项目1：模拟数据并估计离散选择模型**

根据以下模型，首先模拟数据，然后估计出提前设定的参数
$$
y_{i k}=1\left\{k=\operatorname{argmax}_{k=1,2} \beta x_k+\varepsilon_{i k}\right\}
$$
其中，$\varepsilon_{ik}$ 服从第一类极值分布，且为独立同分布；$\beta=0.2$，$x_{1}=0$，$x_2=1$ ; 假定$i=2000$

【注释：上述模型指的是$i\times k$ (具体地，$i\times 2$)维度的数据，对于每一个个体$i$，抽取2个随机的$\varepsilon$以后，比较$\beta x_1+\varepsilon_{i1}$和$\beta x_2+\varepsilon_{i2}$的值，将较大的结果赋值为1，否则赋值为0】

Step 1：首先完成以下的数据构造

```
## # A tibble: 2,000 × 3
##        i     k     x
##    <int> <int> <dbl>
##  1     1     1     0
##  2     1     2     1
##  3     2     1     0
##  4     2     2     1
##  5     3     1     0
##  6     3     2     1
##  7     4     1     0
##  8     4     2     1
##  9     5     1     0
## 10     5     2     1
## # … with 1,990 more rows
## # ℹ Use `print(n = ...)` to see more rows
```

Step 2：随机生成第一类极值分布的数据，随机种子为1，完成以下的数据构造

```
## # A tibble: 2,000 × 4
##        i     k     x       e
##    <int> <int> <dbl>   <dbl>
##  1     1     1     0  0.281 
##  2     1     2     1 -0.167 
##  3     2     1     0  1.93  
##  4     2     2     1  1.97  
##  5     3     1     0  0.830 
##  6     3     2     1 -1.06  
##  7     4     1     0 -0.207 
##  8     4     2     1  0.617 
##  9     5     1     0  0.0444
## 10     5     2     1  1.92  
## # … with 1,990 more rows
## # ℹ Use `print(n = ...)` to see more rows
```

Step 3：计算潜变量的值，形成以下的数据构造

```
## # A tibble: 2,000 × 5
##        i     k     x       e  latent
##    <int> <int> <dbl>   <dbl>   <dbl>
##  1     1     1     0  0.281   0.281 
##  2     1     2     1 -0.167   0.0331
##  3     2     1     0  1.93    1.93  
##  4     2     2     1  1.97    2.17  
##  5     3     1     0  0.830   0.830 
##  6     3     2     1 -1.06   -0.863 
##  7     4     1     0 -0.207  -0.207 
##  8     4     2     1  0.617   0.817 
##  9     5     1     0  0.0444  0.0444
## 10     5     2     1  1.92    2.12  
## # … with 1,990 more rows
## # ℹ Use `print(n = ...)` to see more rows
```

Step 4：得到$y$的值，形成以下的数据构造

```
## # A tibble: 2,000 × 6
##        i     k     x       e  latent     y
##    <int> <int> <dbl>   <dbl>   <dbl> <dbl>
##  1     1     1     0  0.281   0.281      1
##  2     1     2     1 -0.167   0.0331     0
##  3     2     1     0  1.93    1.93       0
##  4     2     2     1  1.97    2.17       1
##  5     3     1     0  0.830   0.830      1
##  6     3     2     1 -1.06   -0.863      0
##  7     4     1     0 -0.207  -0.207      0
##  8     4     2     1  0.617   0.817      1
##  9     5     1     0  0.0444  0.0444     0
## 10     5     2     1  1.92    2.12       1
## # … with 1,990 more rows
## # ℹ Use `print(n = ...)` to see more rows
```
…
